{
  "project_info": {
    "project_number": "300844734930",
    "firebase_url": "https://awesmlogohunt.firebaseio.com",
    "project_id": "awesmlogohunt",
    "storage_bucket": "awesmlogohunt.appspot.com"
  },
  "client": [
    {
      "client_info": {
        "mobilesdk_app_id": "1:300844734930:android:cfdb63f62210fe7a46d00b",
        "android_client_info": {
          "package_name": "ph.sm.letsplaynow"
        }
      },
      "oauth_client": [
        {
          "client_id": "300844734930-02u5hv3h9h1sqgfedkmr06urd06p17mi.apps.googleusercontent.com",
          "client_type": 3
        }
      ],
      "api_key": [
        {
          "current_key": "AIzaSyBJksj3DT4R0sPWg1fPNaTljFxik59vAfI"
        }
      ],
      "services": {
        "appinvite_service": {
          "other_platform_oauth_client": [
            {
              "client_id": "300844734930-02u5hv3h9h1sqgfedkmr06urd06p17mi.apps.googleusercontent.com",
              "client_type": 3
            },
            {
              "client_id": "300844734930-igqmbn2g4a4jg1dkkeo1fdbaljdabroh.apps.googleusercontent.com",
              "client_type": 2,
              "ios_info": {
                "bundle_id": "com.awesm.sm.awesmlogohunt"
              }
            }
          ]
        }
      }
    }
  ],
  "configuration_version": "1"
}